{
  "_format": "hh-sol-artifact-1",
  "contractName": "Address",
  "sourceName": "@openzeppelin/contracts/utils/Address.sol",
  "abi": [],
  "bytecode": "0x60566037600b82828239805160001a607314602a57634e487b7160e01b600052600060045260246000fd5b30600052607381538281f3fe73000000000000000000000000000000000000000030146080604052600080fdfea2646970667358221220fc4b83035fd8f668b02aefc06aa34091351875785818398004aed091f3695df064736f6c634300080d0033",
  "deployedBytecode": "0x73000000000000000000000000000000000000000030146080604052600080fdfea2646970667358221220fc4b83035fd8f668b02aefc06aa34091351875785818398004aed091f3695df064736f6c634300080d0033",
  "linkReferences": {},
  "deployedLinkReferences": {}
}
